Exam project
…
0.0.1 Getting the
data:

german_path <- here("data", "TroveApiData54.csv")
german_df <- read_csv("data/TroveApiData54.csv")

0.1 Tokenizing

german_tokens <- german_df %>% 
  unnest_tokens(word, article_text)
german_tokens

## # A tibble: 85,275 × 11
##           id heading    date                category api_url   snippet trove_url
##        <dbl> <chr>      <dttm>              <chr>    <chr>     <chr>   <chr>    
##  1 122902723 German [?] 1902-09-06 00:00:00 Article  https://… The op… https://…
##  2 122902723 German [?] 1902-09-06 00:00:00 Article  https://… The op… https://…
##  3 122902723 German [?] 1902-09-06 00:00:00 Article  https://… The op… https://…
##  4 122902723 German [?] 1902-09-06 00:00:00 Article  https://… The op… https://…
##  5 122902723 German [?] 1902-09-06 00:00:00 Article  https://… The op… https://…
##  6 122902723 German [?] 1902-09-06 00:00:00 Article  https://… The op… https://…
##  7 122902723 German [?] 1902-09-06 00:00:00 Article  https://… The op… https://…
##  8 122902723 German [?] 1902-09-06 00:00:00 Article  https://… The op… https://…
##  9 122902723 German [?] 1902-09-06 00:00:00 Article  https://… The op… https://…
## 10 122902723 German [?] 1902-09-06 00:00:00 Article  https://… The op… https://…
## # ℹ 85,265 more rows
## # ℹ 4 more variables: from_newspaper <chr>, relevance_score <dbl>,
## #   relevance <chr>, word <chr>

There are 85,275 “words” (1 or more letter(s) with spaces or
punctuation on either side) in the articles altogether.

0.2 Removing
stopwords

german_stop <- german_tokens %>% 
  anti_join(stop_words)

german_stop %>% 
  count(word) %>% 
  arrange(-n)

## # A tibble: 16,432 × 2
##    word        n
##    <chr>   <int>
##  1 german   1224
##  2 germany   335
##  3 1         261
##  4 war       197
##  5 tho       192
##  6 london    148
##  7 ger       146
##  8 world     133
##  9 berlin    128
## 10 british   123
## # ℹ 16,422 more rows
…
## [1] 16151

The reason there is such a high amount of unique words is, as
explained earlier, “words” are 1 or more letters with spaces or
punctuation on either side. Unfortunately, due to the nature of the API
when including all text from newspapers, words on a line-break are
viewed as two separate words. This makes AFINN recognize less words of
course, and is a very unfortunate source of error in this analysis.

1 Sentiment Analysis with
AFINN

get_sentiments(lexicon = "afinn")

## # A tibble: 2,477 × 2
##    word       value
##    <chr>      <dbl>
##  1 abandon       -2
##  2 abandoned     -2
##  3 abandons      -2
##  4 abducted      -2
##  5 abduction     -2
##  6 abductions    -2
##  7 abhor         -3
##  8 abhorred      -3
##  9 abhorrent     -3
## 10 abhors        -3
## # ℹ 2,467 more rows
…
Grouping the articles into one row each, and sorting based on mean
values of AFINN score to find the most negatively valued article:

?group_by
most_negative <- german_afinn %>% 
  group_by(id) %>% 
  summarize(mean_value = mean(value)) %>% 
  arrange(mean_value)

most_negative

## # A tibble: 489 × 2
##           id mean_value
##        <dbl>      <dbl>
##  1 104000726       -4  
##  2  52921393       -3  
##  3  89971930       -3  
##  4 103803335       -3  
##  5 137650906       -3  
##  6 149802877       -3  
##  7 194675060       -3  
##  8 239608418       -3  
##  9 249359793       -3  
## 10 246264080       -2.8
## # ℹ 479 more rows
…
1.1.2 Most positive
article:

most_positive <- german_afinn %>% 
  group_by(id) %>% 
  summarize(mean_value = mean(value)) %>% 
  arrange(-mean_value)

most_positive

## # A tibble: 489 × 2
##           id mean_value
##        <dbl>      <dbl>
##  1 250094631       3.5 
##  2  17052563       3   
##  3  40847273       3   
##  4 122596328       3   
##  5 211051652       3   
##  6 183107673       2.5 
##  7 149439453       2.33
##  8 240117234       2.33
##  9 257653572       2.33
## 10  22154182       2   
## # ℹ 479 more rows
…
